Path id : ;0;;;;;;;;;
Path type : ;DIRECT;;;;;;;;;
Quantity;Unit;Values;;;;;;;;
f;Hz;63.00;125.00;250.00;500.00;1000.00;2000.00;4000.00;8000.00;
Lw;dB;93.00;93.00;93.00;93.00;93.00;93.00;93.00;93.00;
Dc;dB;0.00;0.00;0.00;0.00;0.00;0.00;0.00;0.00;
alpha-atm;dB/km;0.10;0.30;1.10;2.80;5.00;9.00;22.90;76.60;
Aatm;dB;0.00;0.01;0.04;0.09;0.16;0.29;0.73;2.45;
Agr_s;dB;-1.50;-0.47;1.61;1.89;-0.03;-0.60;-0.60;-0.60;
Agr_r;dB;-1.50;0.15;-0.51;-0.60;-0.60;-0.60;-0.60;-0.60;
Agr_m;dB;0.00;0.00;0.00;0.00;0.00;0.00;0.00;0.00;
Agr;dB;-3.00;-0.32;1.11;1.29;-0.63;-1.20;-1.20;-1.20;
Dz_top;dB;11.73;14.65;18.48;22.92;25.00;25.00;25.00;25.00;
Dz_left;dB;8.32;10.31;12.93;16.42;20.76;24.92;28.41;31.56;
Dz_right;dB;6.78;8.19;10.30;13.42;17.56;21.64;25.10;28.24;
Abar_top;dB;11.73;14.65;17.37;21.64;25.00;25.00;25.00;25.00;
Abar_left;dB;8.32;10.31;12.93;16.42;20.76;24.92;28.41;31.56;
Abar_right;dB;6.78;8.19;10.30;13.42;17.56;21.64;25.10;28.24;
Abar;dB;3.72;5.54;7.89;11.24;15.36;18.78;21.14;22.71;
Adiv;dB;41.11;41.11;41.11;41.11;41.11;41.11;41.11;41.11;
L;dB;51.17;46.66;42.86;39.28;37.00;34.02;31.22;27.93;53.31
A-weighting;dB;-26.20;-16.10;-8.60;-3.20;0.00;1.20;1.00;-1.10;
LA;dBA;24.97;30.56;34.26;36.08;37.00;35.22;32.22;26.83;42.71
;;;;;;;;;;
Lglobal;dB;51.17;46.66;42.86;39.28;37.00;34.02;31.22;27.93;53.31
A-weighting;dB;-26.20;-16.10;-8.60;-3.20;0.00;1.20;1.00;-1.10;
LglobalA;dBA;24.97;30.56;34.26;36.08;37.00;35.22;32.22;26.83;42.71
